{
  "visualizations": [],
  "playbackMode": false,
  "timeFieldName": "none",
  "formulas": [],
  "objectFields": [
    {
      "effectiveMax": 20,
      "effectiveMin": 1,
      "parentField": false,
      "refreshable": false,
      "rawFormatSupportTimeGroup": false,
      "distinctCount": false,
      "facet": false,
      "type": "INTEGER",
      "customListValuesOnly": false,
      "checkedByDefault": true,
      "func": "SUM",
      "visible": true,
      "storageConfig": {
        "originalType": "INTEGER",
        "metaFlags": [],
        "cardinality": 20,
        "max": 20,
        "min": 1,
        "originalName": "ID new"
      },
      "name": "id_new",
      "label": "Id New"
    },
    {
      "effectiveMax": 9,
      "effectiveMin": 4,
      "parentField": false,
      "refreshable": false,
      "rawFormatSupportTimeGroup": false,
      "distinctCount": false,
      "facet": false,
      "type": "ATTRIBUTE",
      "customListValuesOnly": false,
      "checkedByDefault": true,
      "visible": true,
      "storageConfig": {
        "originalType": "ATTRIBUTE",
        "metaFlags": [],
        "cardinality": 18,
        "max": 9,
        "min": 4,
        "originalName": "First Name"
      },
      "name": "first_name",
      "label": "First Name"
    },
    {
      "effectiveMax": 1439596800000,
      "effectiveMin": 1381017600000,
      "parentField": false,
      "refreshable": false,
      "rawFormatSupportTimeGroup": true,
      "distinctCount": false,
      "facet": false,
      "type": "TIME",
      "customListValuesOnly": false,
      "timestampGranularity": "DAY",
      "checkedByDefault": true,
      "visible": true,
      "storageConfig": {
        "originalType": "TIME",
        "metaFlags": [
          "PLAYABLE"
        ],
        "cardinality": 0,
        "max": 1439596800000,
        "min": 1381017600000,
        "originalName": "Employment date"
      },
      "name": "employment_date",
      "label": "Employment Date"
    },
    {
      "effectiveMax": 16,
      "effectiveMin": 2,
      "parentField": false,
      "refreshable": false,
      "rawFormatSupportTimeGroup": false,
      "distinctCount": false,
      "facet": false,
      "type": "ATTRIBUTE",
      "customListValuesOnly": false,
      "checkedByDefault": true,
      "visible": true,
      "storageConfig": {
        "originalType": "ATTRIBUTE",
        "metaFlags": [],
        "cardinality": 8,
        "max": 16,
        "min": 2,
        "originalName": "Position"
      },
      "name": "position",
      "label": "Position"
    },
    {
      "effectiveMax": 455284500000,
      "effectiveMin": -154603800000,
      "parentField": false,
      "refreshable": false,
      "rawFormatSupportTimeGroup": true,
      "distinctCount": false,
      "facet": false,
      "type": "TIME",
      "customListValuesOnly": false,
      "timestampGranularity": "MINUTE",
      "checkedByDefault": true,
      "visible": true,
      "storageConfig": {
        "originalType": "NULL",
        "metaFlags": [
          "PLAYABLE"
        ],
        "cardinality": 0,
        "max": 455284500000,
        "min": -154603800000,
        "originalName": "Date of birth"
      },
      "name": "date_of_birth",
      "label": "Date Of Birth"
    },
    {
      "effectiveMax": 10,
      "parentField": false,
      "refreshable": false,
      "rawFormatSupportTimeGroup": false,
      "distinctCount": false,
      "facet": false,
      "type": "INTEGER",
      "customListValuesOnly": false,
      "checkedByDefault": true,
      "func": "SUM",
      "visible": true,
      "storageConfig": {
        "originalType": "INTEGER",
        "metaFlags": [],
        "cardinality": 10,
        "max": 10,
        "min": 0,
        "originalName": "Experience (years)"
      },
      "name": "experience_years",
      "label": "Experience ( Years )"
    },
    {
      "effectiveMax": 7631.02,
      "effectiveMin": 8,
      "parentField": false,
      "refreshable": false,
      "rawFormatSupportTimeGroup": false,
      "distinctCount": false,
      "facet": false,
      "type": "NUMBER",
      "customListValuesOnly": false,
      "checkedByDefault": true,
      "func": "SUM",
      "visible": true,
      "storageConfig": {
        "originalType": "ATTRIBUTE",
        "metaFlags": [],
        "cardinality": 18,
        "max": 7631.02,
        "min": 8,
        "originalName": "Salary"
      },
      "name": "salary",
      "label": "Salary"
    },
    {
      "effectiveMax": 5197700000000000,
      "effectiveMin": 4314070000000000,
      "parentField": false,
      "refreshable": false,
      "rawFormatSupportTimeGroup": false,
      "distinctCount": false,
      "facet": false,
      "type": "INTEGER",
      "customListValuesOnly": false,
      "checkedByDefault": true,
      "func": "SUM",
      "visible": true,
      "storageConfig": {
        "originalType": "INTEGER",
        "metaFlags": [],
        "cardinality": 20,
        "max": 5197700000000000,
        "min": 4314070000000000,
        "originalName": "Credit Card Number"
      },
      "name": "credit_card_number",
      "label": "Credit Card Number"
    },
    {
      "effectiveMax": 12,
      "effectiveMin": 5,
      "parentField": false,
      "refreshable": false,
      "rawFormatSupportTimeGroup": false,
      "distinctCount": false,
      "facet": false,
      "type": "ATTRIBUTE",
      "customListValuesOnly": false,
      "checkedByDefault": true,
      "visible": true,
      "storageConfig": {
        "originalType": "ATTRIBUTE",
        "metaFlags": [],
        "cardinality": 9,
        "max": 12,
        "min": 5,
        "originalName": "Place of Birth"
      },
      "name": "place_of_birth",
      "label": "Place Of Birth"
    },
    {
      "effectiveMax": 98307,
      "effectiveMin": 715,
      "parentField": false,
      "refreshable": false,
      "rawFormatSupportTimeGroup": false,
      "distinctCount": false,
      "facet": false,
      "type": "ATTRIBUTE",
      "customListValuesOnly": false,
      "checkedByDefault": true,
      "visible": true,
      "storageConfig": {
        "originalType": "INTEGER",
        "metaFlags": [],
        "cardinality": 20,
        "max": 98307,
        "min": 715,
        "originalName": "Zip Code"
      },
      "name": "zip_code",
      "label": "Zip Code"
    },
    {
      "effectiveMax": 20,
      "effectiveMin": 1,
      "parentField": false,
      "refreshable": false,
      "rawFormatSupportTimeGroup": false,
      "distinctCount": false,
      "facet": false,
      "type": "INTEGER",
      "customListValuesOnly": false,
      "checkedByDefault": true,
      "func": "SUM",
      "visible": true,
      "storageConfig": {
        "originalType": "INTEGER",
        "metaFlags": [],
        "cardinality": 4,
        "max": 20,
        "min": 1,
        "originalName": "Number of kids"
      },
      "name": "number_of_kids",
      "label": "Number Of Kids"
    },
    {
      "effectiveMax": 49,
      "effectiveMin": 14,
      "parentField": false,
      "refreshable": false,
      "rawFormatSupportTimeGroup": false,
      "distinctCount": false,
      "facet": false,
      "type": "ATTRIBUTE",
      "customListValuesOnly": false,
      "checkedByDefault": true,
      "visible": true,
      "storageConfig": {
        "originalType": "ATTRIBUTE",
        "metaFlags": [],
        "cardinality": 19,
        "max": 49,
        "min": 14,
        "originalName": "E-Mail"
      },
      "name": "e_mail",
      "label": "E - Mail"
    },
    {
      "effectiveMax": 7,
      "effectiveMin": 3,
      "parentField": false,
      "refreshable": false,
      "rawFormatSupportTimeGroup": false,
      "distinctCount": false,
      "facet": false,
      "type": "ATTRIBUTE",
      "customListValuesOnly": false,
      "checkedByDefault": true,
      "visible": true,
      "storageConfig": {
        "originalType": "NULL",
        "metaFlags": [],
        "cardinality": 11,
        "max": 7,
        "min": 3,
        "originalName": "Pets"
      },
      "name": "pets",
      "label": "Pets"
    },
    {
      "effectiveMax": 2192,
      "effectiveMin": 175,
      "parentField": false,
      "refreshable": false,
      "rawFormatSupportTimeGroup": false,
      "distinctCount": false,
      "facet": false,
      "type": "TEXT",
      "customListValuesOnly": false,
      "checkedByDefault": true,
      "visible": true,
      "storageConfig": {
        "originalType": "ATTRIBUTE",
        "metaFlags": [],
        "cardinality": 0,
        "max": 2192,
        "min": 175,
        "originalName": "Review Text"
      },
      "name": "review_text",
      "label": "Review Text"
    }
  ],
  "isConnectionValid": true,
  "volumeMetric": {
    "storageConfig": null,
    "type": "NUMBER",
    "name": "count",
    "visible": true,
    "label": "Volume"
  },
  "storageConfiguration": {
    "connectionId": "hahaha",
    "parameters": null,
    "collectionParams": null,
    "collection": ""
  },
  "cacheable": true,
  "description": "",
  "name": "My FLAT FILE Source ",
  "subStorageType": "CSV",
  "type": "RFS"
}
